%YAML 1.1
%TAG !u! tag:unity3d.com,2011:
--- !u!1045 &1
EditorBuildSettings:
  m_ObjectHideFlags: 0
  serializedVersion: 2
  m_Scenes:
  - enabled: 1
    path: Assets/Scenes/Menus/MainMenu.unity
    guid: e65d4f79435106c439c2c1b926bdd52b
  - enabled: 1
    path: Assets/Scenes/Menus/RoomSelect.unity
    guid: 03df4f5d6515b264eb529aa4149f2ae7
  - enabled: 1
    path: Assets/Scenes/Menus/Lobby.unity
    guid: 48634a99162901049884717e3cf8bd04
  - enabled: 1
    path: Assets/Scenes/GameplayScene/GameplayScene.unity
    guid: 9fc0d4010bbf28b4594072e72b8655ab
  - enabled: 1
    path: Assets/Photon/PhotonUnityNetworking/Demos/PunCockpit/PunCockpit-Scene.unity
    guid: 9d6d60c803e244e51ba945a84b88757d
  - enabled: 1
    path: Assets/Photon/PhotonUnityNetworking/Demos/DemoSlotRacer/SlotCar-Scene.unity
    guid: 711b38c07f2cf904f81b3422c67f1825
  - enabled: 1
    path: Assets/Scenes/Menus/Trash2.0.unity
    guid: 481bc98b7eb1ce0439958ce7b0633a4d
  m_configObjects: {}
